{
  "hits": {
    "hits": [
      {
        "id": "0snd1-pr140",
        "revision_id": 1,
        "links": {
          "self": "https://api-mock/api/names/0snd1-pr140"
        },
        "identifiers": [
          {
            "identifier": "0000-0003-1087-832X",
            "scheme": "orcid"
          }
        ],
        "updated": "2022-06-08T18:55:06.064103+00:00",
        "given_name": "SAIF",
        "name": "AATI, SAIF",
        "family_name": "AATI",
        "affiliations": [
          {
            "name": "California Institute of Technology"
          }
        ],
        "created": "2022-06-08T18:55:06.054557+00:00"
      },
      {
        "id": "8jwfb-3p451",
        "revision_id": 1,
        "links": {
          "self": "https://api-mock/api/names/8jwfb-3p451"
        },
        "identifiers": [
          {
            "identifier": "0000-0001-7792-9246",
            "scheme": "orcid"
          }
        ],
        "updated": "2022-06-08T18:54:58.366381+00:00",
        "given_name": "Eliane",
        "name": "ABOU MANSOUR, Eliane",
        "family_name": "ABOU MANSOUR",
        "affiliations": [
          {
            "name": "Université de Fribourg"
          }
        ],
        "created": "2022-06-08T18:54:58.356267+00:00"
      },
      {
        "id": "ezm0q-b6666",
        "revision_id": 1,
        "links": {
          "self": "https://api-mock/api/names/ezm0q-b6666"
        },
        "identifiers": [
          {
            "identifier": "0000-0003-0355-4773",
            "scheme": "orcid"
          }
        ],
        "updated": "2022-06-08T18:55:50.956411+00:00",
        "given_name": "JISSY",
        "name": "AKKARAPATTIAKAL KURIAPPAN, JISSY",
        "family_name": "AKKARAPATTIAKAL KURIAPPAN",
        "affiliations": [
          {
            "name": "Westfälische Wilhelms-Universität Münster"
          },
          {
            "name": "Istituto Italiano di Tecnologia"
          }
        ],
        "created": "2022-06-08T18:55:50.947867+00:00"
      },
      {
        "id": "yfvjd-1eh41",
        "revision_id": 1,
        "links": {
          "self": "https://api-mock/api/names/yfvjd-1eh41"
        },
        "identifiers": [
          {
            "identifier": "0000-0002-7671-243X",
            "scheme": "orcid"
          }
        ],
        "updated": "2022-06-08T18:55:16.727924+00:00",
        "given_name": "Thea",
        "name": "Aarrestad, Thea",
        "family_name": "Aarrestad",
        "affiliations": [
          {
            "name": "CERN"
          }
        ],
        "created": "2022-06-08T18:55:16.719088+00:00"
      },
      {
        "id": "rk2p3-grs24",
        "revision_id": 1,
        "links": {
          "self": "https://api-mock/api/names/rk2p3-grs24"
        },
        "identifiers": [
          {
            "identifier": "0000-0002-1088-3228",
            "scheme": "orcid"
          }
        ],
        "updated": "2022-06-08T18:54:56.255042+00:00",
        "given_name": "Mina Nashaat Demian",
        "name": "Abadeer, Mina Nashaat Demian",
        "family_name": "Abadeer",
        "affiliations": [
          {
            "name": "University of Münster"
          }
        ],
        "created": "2022-06-08T18:54:56.245878+00:00"
      },
      {
        "id": "ks4pq-hzy90",
        "revision_id": 1,
        "links": {
          "self": "https://api-mock/api/names/ks4pq-hzy90"
        },
        "identifiers": [
          {
            "identifier": "0000-0002-1169-1906",
            "scheme": "orcid"
          }
        ],
        "updated": "2022-06-08T18:56:05.162388+00:00",
        "given_name": "Qamar",
        "name": "Abbas, Qamar",
        "family_name": "Abbas",
        "affiliations": [
          {
            "name": "Graz University of Technology"
          }
        ],
        "created": "2022-06-08T18:56:05.153071+00:00"
      },
      {
        "id": "cz5hd-dvb07",
        "revision_id": 1,
        "links": {
          "self": "https://api-mock/api/names/cz5hd-dvb07"
        },
        "identifiers": [
          {
            "identifier": "0000-0002-6129-3244",
            "scheme": "orcid"
          }
        ],
        "updated": "2022-06-08T18:54:58.176792+00:00",
        "given_name": "Ryan",
        "name": "Abdella, Ryan",
        "family_name": "Abdella",
        "affiliations": [
          {
            "name": "Northwestern University"
          }
        ],
        "created": "2022-06-08T18:54:58.168239+00:00"
      },
      {
        "id": "aw6g5-yfz11",
        "revision_id": 1,
        "links": {
          "self": "https://api-mock/api/names/aw6g5-yfz11"
        },
        "identifiers": [
          {
            "identifier": "0000-0001-7777-0546",
            "scheme": "orcid"
          }
        ],
        "updated": "2022-06-08T18:55:27.310508+00:00",
        "given_name": "Muaaz",
        "name": "Abdul Hadi, Muaaz",
        "family_name": "Abdul Hadi",
        "affiliations": [
          {
            "name": "Graz University of Technology"
          },
          {
            "name": "Pro2Future GmbH"
          }
        ],
        "created": "2022-06-08T18:55:27.299463+00:00"
      },
      {
        "id": "eb0jm-fkk87",
        "revision_id": 1,
        "links": {
          "self": "https://api-mock/api/names/eb0jm-fkk87"
        },
        "identifiers": [
          {
            "identifier": "0000-0003-1037-3225",
            "scheme": "orcid"
          }
        ],
        "updated": "2022-06-08T18:54:56.062576+00:00",
        "given_name": "Owais",
        "name": "Abdul Hameed, Owais",
        "family_name": "Abdul Hameed",
        "affiliations": [
          {
            "name": "University of Fribourg"
          }
        ],
        "created": "2022-06-08T18:54:56.054021+00:00"
      },
      {
        "id": "t7ne2-33538",
        "revision_id": 1,
        "links": {
          "self": "https://api-mock/api/names/t7ne2-33538"
        },
        "identifiers": [
          {
            "identifier": "0000-0002-4948-3934",
            "scheme": "orcid"
          }
        ],
        "updated": "2022-06-08T18:56:08.013098+00:00",
        "given_name": "Wildan",
        "name": "Abdussalam, Wildan",
        "family_name": "Abdussalam",
        "affiliations": [
          {
            "name": "Helmholtz-Zentrum Dresden-Rossendorf"
          }
        ],
        "created": "2022-06-08T18:56:08.003769+00:00"
      },
      {
        "id": "d1we5-z5s81",
        "revision_id": 1,
        "links": {
          "self": "https://api-mock/api/names/d1we5-z5s81"
        },
        "identifiers": [
          {
            "identifier": "0000-0001-7511-4502",
            "scheme": "orcid"
          }
        ],
        "updated": "2022-06-08T18:55:23.033328+00:00",
        "given_name": "Jun",
        "name": "Abe, Jun",
        "family_name": "Abe",
        "affiliations": [
          {
            "name": "University of Fribourg"
          }
        ],
        "created": "2022-06-08T18:55:23.023457+00:00"
      },
      {
        "id": "rkmna-nks04",
        "revision_id": 1,
        "links": {
          "self": "https://api-mock/api/names/rkmna-nks04"
        },
        "identifiers": [
          {
            "identifier": "0000-0003-2929-0817",
            "scheme": "orcid"
          }
        ],
        "updated": "2022-06-08T18:55:55.329346+00:00",
        "given_name": "Sina",
        "name": "Abedini Dereshgi, Sina",
        "family_name": "Abedini Dereshgi",
        "affiliations": [
          {
            "name": "Northwestern University"
          }
        ],
        "created": "2022-06-08T18:55:55.320974+00:00"
      },
      {
        "id": "dswev-fm120",
        "revision_id": 1,
        "links": {
          "self": "https://api-mock/api/names/dswev-fm120"
        },
        "identifiers": [
          {
            "identifier": "0000-0002-6832-9051",
            "scheme": "orcid"
          }
        ],
        "updated": "2022-06-08T18:54:38.423230+00:00",
        "given_name": "Hartmut",
        "name": "Abele, Hartmut",
        "family_name": "Abele",
        "affiliations": [
          {
            "name": "Technische Universität Wien"
          }
        ],
        "created": "2022-06-08T18:54:38.413662+00:00"
      },
      {
        "id": "9p2eh-k0h34",
        "revision_id": 1,
        "links": {
          "self": "https://api-mock/api/names/9p2eh-k0h34"
        },
        "identifiers": [
          {
            "identifier": "0000-0001-6965-3753",
            "scheme": "orcid"
          }
        ],
        "updated": "2022-06-08T18:55:48.828989+00:00",
        "given_name": "Milinda",
        "name": "Abeykoon, Milinda",
        "family_name": "Abeykoon",
        "affiliations": [
          {
            "name": "Brookhaven National Laboratory"
          }
        ],
        "created": "2022-06-08T18:55:48.820925+00:00"
      },
      {
        "id": "khptd-b9739",
        "revision_id": 1,
        "links": {
          "self": "https://api-mock/api/names/khptd-b9739"
        },
        "identifiers": [
          {
            "identifier": "0000-0003-0335-8588",
            "scheme": "orcid"
          }
        ],
        "updated": "2022-06-08T18:55:32.070175+00:00",
        "given_name": "Taher",
        "name": "Abu Ali, Taher",
        "family_name": "Abu Ali",
        "affiliations": [
          {
            "name": "Graz University of Technology"
          },
          {
            "name": "Joanneum Research Forschungsgesellschaft mbH"
          }
        ],
        "created": "2022-06-08T18:55:32.061400+00:00"
      },
      {
        "id": "m3xr2-bp297",
        "revision_id": 1,
        "links": {
          "self": "https://api-mock/api/names/m3xr2-bp297"
        },
        "identifiers": [
          {
            "identifier": "0000-0002-9614-4038",
            "scheme": "orcid"
          }
        ],
        "updated": "2022-06-08T18:54:37.395449+00:00",
        "given_name": "Monica",
        "name": "Aceti, Monica",
        "family_name": "Aceti",
        "affiliations": [
          {
            "name": "University of Basel"
          },
          {
            "name": "Université de Fribourg"
          }
        ],
        "created": "2022-06-08T18:54:37.387855+00:00"
      },
      {
        "id": "zp486-y4e69",
        "revision_id": 1,
        "links": {
          "self": "https://api-mock/api/names/zp486-y4e69"
        },
        "identifiers": [
          {
            "identifier": "0000-0003-3668-7089",
            "scheme": "orcid"
          }
        ],
        "updated": "2022-06-08T18:54:42.017738+00:00",
        "given_name": "Raul",
        "name": "Acevedo-Esteves, Raul",
        "family_name": "Acevedo-Esteves",
        "affiliations": [
          {
            "name": "Brookhaven National Laboratory"
          }
        ],
        "created": "2022-06-08T18:54:42.009530+00:00"
      },
      {
        "id": "0h180-bp397",
        "revision_id": 1,
        "links": {
          "self": "https://api-mock/api/names/0h180-bp397"
        },
        "identifiers": [
          {
            "identifier": "0000-0002-9306-880X",
            "scheme": "orcid"
          }
        ],
        "updated": "2022-06-08T18:55:54.538830+00:00",
        "given_name": "Franz",
        "name": "Achleitner, Franz",
        "family_name": "Achleitner",
        "affiliations": [
          {
            "name": "TU Wien"
          }
        ],
        "created": "2022-06-08T18:55:54.529533+00:00"
      },
      {
        "id": "dg6fp-rg584",
        "revision_id": 1,
        "links": {
          "self": "https://api-mock/api/names/dg6fp-rg584"
        },
        "identifiers": [
          {
            "identifier": "0000-0002-3490-5452",
            "scheme": "orcid"
          }
        ],
        "updated": "2022-06-08T18:55:18.022163+00:00",
        "given_name": "Leonie",
        "name": "Ackermann, Leonie",
        "family_name": "Ackermann",
        "affiliations": [
          {
            "name": "Otto-Friedrich-Universität Bamberg"
          }
        ],
        "created": "2022-06-08T18:55:18.014148+00:00"
      },
      {
        "id": "ecz8h-72655",
        "revision_id": 1,
        "links": {
          "self": "https://api-mock/api/names/ecz8h-72655"
        },
        "identifiers": [
          {
            "identifier": "0000-0002-0015-6174",
            "scheme": "orcid"
          }
        ],
        "updated": "2022-06-08T18:54:50.467643+00:00",
        "given_name": "Juan Jobelle",
        "name": "Acosta, Juan Jobelle",
        "family_name": "Acosta",
        "affiliations": [
          {
            "name": "Northwestern University"
          }
        ],
        "created": "2022-06-08T18:54:50.459332+00:00"
      },
      {
        "id": "r83jn-6ac25",
        "revision_id": 1,
        "links": {
          "self": "https://api-mock/api/names/r83jn-6ac25"
        },
        "identifiers": [
          {
            "identifier": "0000-0002-0098-7912",
            "scheme": "orcid"
          }
        ],
        "updated": "2022-06-08T18:56:05.764232+00:00",
        "given_name": "Mateo",
        "name": "Acosta, Mateo",
        "family_name": "Acosta",
        "affiliations": [
          {
            "name": "California Institute of Technology"
          }
        ],
        "created": "2022-06-08T18:56:05.756249+00:00"
      },
      {
        "id": "5ch7a-jgx96",
        "revision_id": 1,
        "links": {
          "self": "https://api-mock/api/names/5ch7a-jgx96"
        },
        "identifiers": [
          {
            "identifier": "0000-0001-8066-2677",
            "scheme": "orcid"
          }
        ],
        "updated": "2022-06-08T18:55:41.219831+00:00",
        "given_name": "Guillermo",
        "name": "Acuna, Guillermo",
        "family_name": "Acuna",
        "affiliations": [
          {
            "name": "Université de Fribourg"
          }
        ],
        "created": "2022-06-08T18:55:41.212249+00:00"
      },
      {
        "id": "nhc72-m9781",
        "revision_id": 1,
        "links": {
          "self": "https://api-mock/api/names/nhc72-m9781"
        },
        "identifiers": [
          {
            "identifier": "0000-0001-9940-9217",
            "scheme": "orcid"
          }
        ],
        "updated": "2022-06-08T18:54:55.162033+00:00",
        "given_name": "Emma",
        "name": "Adam, Emma",
        "family_name": "Adam",
        "affiliations": [
          {
            "name": "Northwestern University"
          }
        ],
        "created": "2022-06-08T18:54:55.153582+00:00"
      },
      {
        "id": "xxc96-kb007",
        "revision_id": 1,
        "links": {
          "self": "https://api-mock/api/names/xxc96-kb007"
        },
        "identifiers": [
          {
            "identifier": "0000-0002-6970-0262",
            "scheme": "orcid"
          }
        ],
        "updated": "2022-06-08T18:54:59.713388+00:00",
        "given_name": "Lauren",
        "name": "Adams, Lauren",
        "family_name": "Adams",
        "affiliations": [
          {
            "name": "Northwestern University"
          }
        ],
        "created": "2022-06-08T18:54:59.704108+00:00"
      },
      {
        "id": "m5kzr-yj056",
        "revision_id": 1,
        "links": {
          "self": "https://api-mock/api/names/m5kzr-yj056"
        },
        "identifiers": [
          {
            "identifier": "0000-0001-5855-5939",
            "scheme": "orcid"
          }
        ],
        "updated": "2022-06-08T18:56:08.340090+00:00",
        "given_name": "Scott",
        "name": "Adams, Scott",
        "family_name": "Adams",
        "affiliations": [
          {
            "name": "California Institute of Technology"
          }
        ],
        "created": "2022-06-08T18:56:08.332070+00:00"
      }
    ],
    "total": 6585
  },
  "sortBy": "name",
  "links": {
    "self": "https://api-mock/api/names?page=1&size=25&sort=name",
    "next": "https://api-mock/api/names?page=2&size=25&sort=name"
  }
}
